{
  "statusCode": 401,
  "statusMessage": "OK",
  "headers": {
    "x-delay": 0,
    "x-powered-by": "Express",
    "content-type": "application/json; charset=utf-8",
    "connection": "close"
  },
  "response": {
    "listSummary": {
      "page": 1,
      "pageSize": 5,
      "totalItems": 10,
      "totalPages": 2
    },
    "listItems": [
      {
        "id": "1",
        "title": "新加坡+吉隆坡+马六甲6或7日跟团游",
        "content": "无锡",
        "date": "2018-12-28T10:08:48.834Z"
      },
      {
        "id": "2",
        "title": "新加坡+吉隆坡+马六甲6或7日跟团游",
        "content": "无锡",
        "date": "2018-12-28T10:08:48.834Z"
      },
      {
        "id": "3",
        "title": "新加坡+吉隆坡+马六甲6或7日跟团游",
        "content": "无锡",
        "date": "2018-12-28T10:08:48.834Z"
      },
      {
        "id": "4",
        "title": "新加坡+吉隆坡+马六甲6或7日跟团游",
        "content": "无锡",
        "date": "2018-12-28T10:08:48.834Z"
      },
      {
        "id": "5",
        "title": "新加坡+吉隆坡+马六甲6或7日跟团游",
        "content": "无锡",
        "date": "2018-12-28T10:08:48.834Z"
      }
    ]
  }
}
