{
  "statusCode": 200,
  "statusMessage": "OK",
  "headers": {
    "x-delay": 0,
    "x-powered-by": "Express",
    "content-type": "application/json; charset=utf-8",
    "connection": "close"
  },
  "response": {
    "listSummary": {
      "page": 2,
      "pageSize": 5,
      "totalItems": 10,
      "totalPages": 2
    },
    "listItems": [
      {
        "id": "6",
        "title": "桂林+阳朔+游轮百里大漓江+龙脊梯田+象鼻山+银子岩+古东瀑布+阳朔西街火车5日跟团游",
        "hot": 67,
        "coverUrl": "/client/imgs/14.jpg",
        "videoUrl": "/client/imgs/14.jpg"
      },
      {
        "id": "7",
        "title": "厚道北京火车/双高/双动5日跟团游",
        "hot": 658,
        "coverUrl": "/client/imgs/15.jpg",
        "videoUrl": "/client/imgs/15.jpg"
      },
      {
        "id": "8",
        "title": "自驾出行更便捷【冬日暖泉季】",
        "hot": 3562,
        "coverUrl": "/client/imgs/16.jpg",
        "videoUrl": "/client/imgs/16.jpg"
      },
      {
        "id": "9",
        "title": "黄山+宏村+新安江大巴3日跟团游",
        "hot": 8942,
        "coverUrl": "/client/imgs/17.jpg",
        "videoUrl": "/client/imgs/17.jpg"
      },
      {
        "id": "10",
        "title": "海天佛国普陀山+紫竹林+南海观音",
        "hot": 882,
        "coverUrl": "/client/imgs/18.jpg",
        "videoUrl": "/client/imgs/18.jpg"
      }
    ]
  }
}
