{
  "url": "get--ajax-comments\\$articleId=\\d+&isNewest=true&page=2&pageSize=10",
  "statusCode": 200,
  "statusMessage": "OK",
  "headers": {
    "x-delay": 0,
    "x-powered-by": "Express",
    "content-type": "application/json; charset=utf-8",
    "connection": "close"
  },
  "response": {
    "listSummary": {
      "page": 2,
      "pageSize": 5,
      "totalItems": 10,
      "totalPages": 2
    },
    "listItems": [
      {
        "id": "16",
        "userId": "16",
        "username": "miyazi-雅咪",
        "avatarUrl": "imgs/u1.jpg",
        "content": "很满意，特别是领队赵向征对大家都很照顾很热情。在旅途中我遇到了一些问题，领队也一直在协助我帮我解决问题。散团后，领队还一直帮我们拿行李直到我们坐上的士离开。很多细节说不完，简单说一句，真心感谢他。！！！",
        "replies": 7,
        "createdTime": "15分钟前"
      },
      {
        "id": "17",
        "userId": "17",
        "username": "大壹壹莙",
        "avatarUrl": "imgs/u1.jpg",
        "content": "6天的冰雪之旅让人印象深刻！去年就想来哈尔滨了，今年终于过来了，一个字，值！ 1.首先非常感谢领队张金莲张导 非常的认真负责 最后到香港还给我安排好车到深圳 非常感谢她 对于这次的行程个人感觉还是挺好的 酒店也没有之前说的那么小 富士山的酒店很有特色 是榻榻米",
        "replies": 85,
        "createdTime": "15分钟前"
      },
      {
        "id": "18",
        "userId": "18",
        "username": "13902oajyde",
        "avatarUrl": "imgs/u1.jpg",
        "content": "必须要狠狠的赞一下地陪！我觉得真的是很难能遇到那么实在，那么好的地陪！人又漂亮声音也超好听！对待中日关系中，会持比较中肯的态度，不会说因为在日本生活多年而赞美日本，也不会因为是中国人而贬低日本！让我们能很全面的了解日本整个国情！",
        "replies": 6,
        "createdTime": "30分钟前"
      },
      {
        "id": "19",
        "userId": "19",
        "username": "小仙女u",
        "avatarUrl": "imgs/u1.jpg",
        "content": "总得来说，还行吧！因为团费就在那，所以对吃和住要求不高的朋友，都可以接受的，行程时经典路线，了解了日本传承了我们中国的文化，感谢地陪热情地陪伴，让我们了解当地时间人文风情和历史文化，自由行街时，真的有求必应地告诉我们如何找我们需要买的东西",
        "replies": 4,
        "createdTime": "30分钟前"
      },
      {
        "id": "20",
        "userId": "20",
        "username": "win佳佳",
        "avatarUrl": "imgs/u1.jpg",
        "content": "这次日本旅行收购贼大，首先先称赞一下张金莲导游，导游本人真的太好了，服务周到，有耐心还很友善，真的不是吹的。导游评价6个星",
        "replies": 12,
        "createdTime": "1小时前"
      }
    ]
  }
}
