{
  "url": "get--ajax-videos\\$page=2&pageSize=10&title=.+",
  "statusCode": 200,
  "statusMessage": "OK",
  "headers": {
    "x-delay": 1000,
    "x-powered-by": "Express",
    "content-type": "application/json; charset=utf-8",
    "connection": "close"
  },
  "response": {
    "listSummary": {
      "page": 2,
      "pageSize": 5,
      "totalItems": 10,
      "totalPages": 2
    },
    "listItems": [
      {
        "id": "2",
        "title": "芽庄4晚5日跟团游",
        "hot": 36,
        "coverUrl": "imgs/10.jpg",
        "videoUrl": "imgs/10.jpg"
      },
      {
        "id": "10",
        "title": "海天佛国普陀山+紫竹林+南海观音",
        "hot": 882,
        "coverUrl": "imgs/18.jpg",
        "videoUrl": "imgs/18.jpg"
      },
      {
        "id": "8",
        "title": "自驾出行更便捷【冬日暖泉季】",
        "hot": 3562,
        "coverUrl": "imgs/16.jpg",
        "videoUrl": "imgs/16.jpg"
      },
      {
        "id": "1",
        "title": "新加坡+吉隆坡+马六甲6或7日跟团游",
        "hot": 265,
        "coverUrl": "imgs/9.jpg",
        "videoUrl": "imgs/9.jpg"
      },
      {
        "id": "6",
        "title": "桂林+阳朔+游轮百里大漓江+龙脊梯田+象鼻山+银子岩+古东瀑布+阳朔西街火车5日跟团游",
        "hot": 67,
        "coverUrl": "imgs/14.jpg",
        "videoUrl": "imgs/14.jpg"
      }
    ]
  }
}
