{
  "url": "get--ajax-comments\\$articleId=\\d+&isNewest=false&page=1&pageSize=10",
  "statusCode": 200,
  "statusMessage": "OK",
  "headers": {
    "x-delay": 0,
    "x-powered-by": "Express",
    "content-type": "application/json; charset=utf-8",
    "connection": "close"
  },
  "response": {
    "listSummary": {
      "page": 1,
      "pageSize": 5,
      "totalItems": 10,
      "totalPages": 2
    },
    "listItems": [
      {
        "id": "1",
        "userId": "1",
        "username": "草丛",
        "avatarUrl": "imgs/u1.jpg",
        "content": "日本是亚洲地区唯一的一个发达国家，我不管别人怎么评判，我是在游历世界，好的坏的我都要去经历，带着批判、审视的眼光去了解这个世界。而我的人生，在游历中成长、积累、丰富。第一天是日本的京都，有人说这个城市带着太多中国的印记，或许吧",
        "replies": 55,
        "createdTime": "1个小时前"
      },
      {
        "id": "2",
        "userId": "2",
        "username": "华英雄",
        "avatarUrl": "imgs/u1.jpg",
        "content": "这次旅程共6天，6天中我没有听到过1次汽车喇叭声，也没有强行超车，不管是在农村还是市区。还有就是干净，日本公共场所**桶很少，但是非常干净，地上一点点**都看不见，一切都是那么整齐有序。（据说日本人出门都带个**袋，一天的**都带回家再分类扔掉",
        "replies": 61,
        "createdTime": "1天前"
      },
      {
        "id": "3",
        "userId": "3",
        "username": "慢热少女ww",
        "avatarUrl": "imgs/u1.jpg",
        "content": "这次日本本州之旅终于结束了 内心还是意犹未尽！首先非常感谢胡震宇领队和韩成宝导游这六天的细心组织！坂进坂出在路上的时间比较长，但是导游在车上给我们讲了很多日本的历史 日本人的生活方式 日本的优缺点，在旅游的同时也更加深入了解了日本这个国家",
        "replies": 58,
        "createdTime": "1天前"
      },
      {
        "id": "4",
        "userId": "4",
        "username": "Miss泡芙",
        "avatarUrl": "imgs/u1.jpg",
        "content": "对于第一次去日本来说、这个行程还是不错的。如果不想坐太久的车、可以选择大阪进东京出的行程、我们这次是因为时间没有合适的、所以选择了阪进阪出、车程有点长。建议带好u型枕和小靠垫、可以放在车上、不麻烦的。第一站神鹿公园相对还是比较好玩的",
        "replies": 103,
        "createdTime": "3天前"
      },
      {
        "id": "5",
        "userId": "5",
        "username": "玲玲玲玲子",
        "avatarUrl": "imgs/u1.jpg",
        "content": "第一次去日本选择了跟团游。优点是从下单开始都有专人服务，不管是客服还是导游服务态度都很好，有问必答，对我帮助很大。这次旅行线路比较长，日本的标志性景点都安排到了，对日本文化也有了简单的了解，感受到了日本的人文气息",
        "replies": 42,
        "createdTime": "5天前"
      }
    ]
  }
}
