{
  "url": "get--ajax-comments\\$articleId=\\d+&isNewest=false&page=2&pageSize=10",
  "statusCode": 200,
  "statusMessage": "OK",
  "headers": {
    "x-delay": 0,
    "x-powered-by": "Express",
    "content-type": "application/json; charset=utf-8",
    "connection": "close"
  },
  "response": {
    "listSummary": {
      "page": 2,
      "pageSize": 5,
      "totalItems": 10,
      "totalPages": 2
    },
    "listItems": [
      {
        "id": "6",
        "userId": "6",
        "username": "巅峰、浪味仙",
        "avatarUrl": "imgs/u1.jpg",
        "content": "看着行程感觉还不错，吃住还不错，抱着，满满的爱想去日本！结果，结果，结果，特么同程的什么**团，我真的是服气，吃也没有吃上什么，。都是在便利店买的便当回去吃，简直就是满分。说的当地四星，实际住的就和招待所一样，酒店全在荒山上，只有最后一天的酒店好一点，前几天的酒店方圆几公里都没见过便利店，说的无购物团，带去了三家购物店，虽然没强制消费，但是每个都让呆一个小时",
        "replies": 70,
        "createdTime": "1周前"
      },
      {
        "id": "7",
        "userId": "7",
        "username": "非LOVE鸡毛",
        "avatarUrl": "imgs/u1.jpg",
        "content": "最满意到了富士山，没有云层遮挡看到了完整的山头。行程比较紧，有些点就停留时间太短，有一两天在车上的时间较多，住宿每晚不同所以衣服比较难干建议多带衣服。如果可以住宿点可以靠近商业街让我们下午晚上自己去逛街就更好了。忍野八海对大中华群众来说确实是几个小水潭，不过水很清鱼很肥，吃了个烤岩鱼很鲜美。茶道体验也不错，老太太年纪很大了跪坐很轻松",
        "replies": 23,
        "createdTime": "1周前"
      },
      {
        "id": "8",
        "userId": "8",
        "username": "味精dream",
        "avatarUrl": "imgs/u1.jpg",
        "content": "香港航空往返，对我们外语不怎么好的广东人尤其适合，空姐靓丽贴心。全程自助早餐，正餐有自助烤肉、涮涮锅，非自助时有套餐，营养卫生。住的酒店除一晚在温泉酒店住的偏远外，其余都住在离闹市不远的地方，晚上可出去逛街、坐地铁、感受居酒屋文化。",
        "replies": 14,
        "createdTime": "2018-10-25"
      },
      {
        "id": "9",
        "userId": "9",
        "username": "186todza801",
        "avatarUrl": "imgs/u1.jpg",
        "content": "首先说说行程，我特地挑了c线，让我有足够的时间享受行程。对了，为什么这么说，是因为我是亲子行，我的小朋友5岁。行程中不是太赶，每天都8点出发，20到前到酒店，活动和休息时间都相当合理，让小朋友和大人都有良好的休息和活动精力。",
        "replies": 21,
        "createdTime": "2018-10-25"
      },
      {
        "id": "10",
        "userId": "10",
        "username": "滢滢甜心",
        "avatarUrl": "imgs/u1.jpg",
        "content": "这次和姐妹游日本，整体感觉很和谐愉快！领队何成勇认真负责风趣幽默，导游王琦专业地道热情敬业，团友们都友爱互助！之前跟日本同事交流就知道他们十分有礼貌，这次亲身实地体验更加感觉他们的热情有礼基本贯穿整个民族，无论语言是否相通",
        "replies": 52,
        "createdTime": "2018-10-23"
      }
    ]
  }
}
